projeto/simulation/qsim/VGA.msim.vcd
$comment
	File created using the following command:
		vcd file VGA.msim.vcd -direction
$end
$date
	Fri Sep 19 16:01:10 2025
$end
$version
	ModelSim Version 2020.1
$end
$timescale
	1ps
$end

$scope module botoes_module_vlg_vec_tst $end
$var reg 1 ! but_zoom_in $end
$var reg 1 " but_zoom_out $end
$var reg 1 # clk $end
$var reg 3 $ escolha_alg [2:0] $end
$var reg 1 % rst $end
$var wire 1 & escolhido [1] $end
$var wire 1 ' escolhido [0] $end

$scope module i1 $end
$var wire 1 ( gnd $end
$var wire 1 ) vcc $end
$var wire 1 * unknown $end
$var tri1 1 + devclrn $end
$var tri1 1 , devpor $end
$var tri1 1 - devoe $end
$var wire 1 . ~QUARTUS_CREATED_GND~I_combout $end
$var wire 1 / clk~input_o $end
$var wire 1 0 clk~inputCLKENA0_outclk $end
$var wire 1 1 but_zoom_in~input_o $end
$var wire 1 2 rst~input_o $end
$var wire 1 3 but_zoom_in_prev~q $end
$var wire 1 4 escolha_alg[0]~input_o $end
$var wire 1 5 escolha_alg[1]~input_o $end
$var wire 1 6 escolha_alg[2]~input_o $end
$var wire 1 7 Equal0~0_combout $end
$var wire 1 8 but_zoom_out~input_o $end
$var wire 1 9 but_zoom_out_prev~q $end
$var wire 1 : estado_proximo.ESTADO_10~0_combout $end
$var wire 1 ; estado_proximo.ESTADO_10~1_combout $end
$var wire 1 < estado_atual.ESTADO_10~q $end
$var wire 1 = estado_proximo.ESTADO_00~0_combout $end
$var wire 1 > estado_proximo.ESTADO_00~1_combout $end
$var wire 1 ? estado_atual.ESTADO_00~q $end
$var wire 1 @ estado_atual.ESTADO_01~q $end
$var wire 1 A estado_proximo.ESTADO_01~0_combout $end
$var wire 1 B estado_proximo.ESTADO_01~1_combout $end
$var wire 1 C escolhido[0]~reg0_q $end
$var wire 1 D escolhido[1]~reg0_q $end
$var wire 1 E escolha_alg_prev [2] $end
$var wire 1 F escolha_alg_prev [1] $end
$var wire 1 G escolha_alg_prev [0] $end
$upscope $end
$upscope $end
$enddefinitions $end
#0
$dumpvars
0!
0"
0#
b0 $
0%
0'
0&
0(
1)
x*
1+
1,
1-
0.
0/
00
01
02
03
04
05
06
17
08
09
0:
0;
0<
1=
0>
0?
0@
0A
0B
0C
0D
0G
0F
0E
$end
#5000
1!
11
1B
1>
#10000
0!
01
0B
0>
#15000
1!
11
1B
1>
#20000
0!
01
0B
0>
#25000
1!
11
1B
1>
#30000
0!
01
0B
0>
#35000
1!
11
1B
1>
#40000
0!
01
0B
0>
#45000
1!
11
1B
1>
#50000
0!
01
0B
0>
#55000
1!
11
1B
1>
#60000
0!
01
0B
0>
#65000
1!
11
1B
1>
#70000
0!
01
0B
0>
#75000
1!
11
1B
1>
#80000
0!
01
0B
0>
#85000
1!
11
1B
1>
#90000
0!
01
0B
0>
#95000
1!
11
1B
1>
#100000
0!
01
0B
0>
#105000
1!
11
1B
1>
#110000
0!
01
0B
0>
#115000
1!
11
1B
1>
#120000
0!
01
0B
0>
#125000
1!
11
1B
1>
#130000
0!
01
0B
0>
#135000
1!
11
1B
1>
#140000
0!
01
0B
0>
#145000
1!
11
1B
1>
#150000
0!
01
0B
0>
#155000
1!
11
1B
1>
#160000
0!
01
0B
0>
#165000
1!
11
1B
1>
#170000
0!
01
0B
0>
#175000
1!
11
1B
1>
#180000
0!
01
0B
0>
#185000
1!
11
1B
1>
#190000
0!
01
0B
0>
#195000
1!
11
1B
1>
#200000
0!
01
0B
0>
#205000
1!
11
1B
1>
#210000
0!
01
0B
0>
#215000
1!
11
1B
1>
#220000
0!
01
0B
0>
#225000
1!
11
1B
1>
#230000
0!
01
0B
0>
#235000
1!
11
1B
1>
#240000
0!
01
0B
0>
#245000
1!
11
1B
1>
#250000
0!
01
0B
0>
#255000
1!
11
1B
1>
#260000
0!
01
0B
0>
#265000
1!
11
1B
1>
#270000
0!
01
0B
0>
#275000
1!
11
1B
1>
#280000
0!
01
0B
0>
#285000
1!
11
1B
1>
#290000
0!
01
0B
0>
#295000
1!
11
1B
1>
#300000
0!
01
0B
0>
#305000
1!
11
1B
1>
#310000
0!
01
0B
0>
#315000
1!
11
1B
1>
#320000
0!
01
0B
0>
#325000
1!
11
1B
1>
#330000
0!
01
0B
0>
#335000
1!
11
1B
1>
#340000
0!
01
0B
0>
#345000
1!
11
1B
1>
#350000
0!
01
0B
0>
#355000
1!
11
1B
1>
#360000
0!
01
0B
0>
#365000
1!
11
1B
1>
#370000
0!
01
0B
0>
#375000
1!
11
1B
1>
#380000
0!
01
0B
0>
#385000
1!
11
1B
1>
#390000
0!
01
0B
0>
#395000
1!
11
1B
1>
#400000
0!
01
0B
0>
#405000
1!
11
1B
1>
#410000
0!
01
0B
0>
#415000
1!
11
1B
1>
#420000
0!
01
0B
0>
#425000
1!
11
1B
1>
#430000
0!
01
0B
0>
#435000
1!
11
1B
1>
#440000
0!
01
0B
0>
#445000
1!
11
1B
1>
#450000
0!
01
0B
0>
#455000
1!
11
1B
1>
#460000
0!
01
0B
0>
#465000
1!
11
1B
1>
#470000
0!
01
0B
0>
#475000
1!
11
1B
1>
#480000
0!
01
0B
0>
#485000
1!
11
1B
1>
#490000
0!
01
0B
0>
#495000
1!
11
1B
1>
#500000
0!
01
0B
0>
#505000
1!
11
1B
1>
#510000
0!
01
0B
0>
#515000
1!
11
1B
1>
#520000
0!
01
0B
0>
#525000
1!
11
1B
1>
#530000
0!
01
0B
0>
#535000
1!
11
1B
1>
#540000
0!
01
0B
0>
#545000
1!
11
1B
1>
#550000
0!
01
0B
0>
#555000
1!
11
1B
1>
#560000
0!
01
0B
0>
#565000
1!
11
1B
1>
#570000
0!
01
0B
0>
#575000
1!
11
1B
1>
#580000
0!
01
0B
0>
#585000
1!
11
1B
1>
#590000
0!
01
0B
0>
#595000
1!
11
1B
1>
#600000
0!
01
0B
0>
#605000
1!
11
1B
1>
#610000
0!
01
0B
0>
#615000
1!
11
1B
1>
#620000
0!
01
0B
0>
#625000
1!
11
1B
1>
#630000
0!
01
0B
0>
#635000
1!
11
1B
1>
#640000
0!
01
0B
0>
#645000
1!
11
1B
1>
#650000
0!
01
0B
0>
#655000
1!
11
1B
1>
#660000
0!
01
0B
0>
#665000
1!
11
1B
1>
#670000
0!
01
0B
0>
#675000
1!
11
1B
1>
#680000
0!
01
0B
0>
#685000
1!
11
1B
1>
#690000
0!
01
0B
0>
#695000
1!
11
1B
1>
#700000
0!
01
0B
0>
#705000
1!
11
1B
1>
#710000
0!
01
0B
0>
#715000
1!
11
1B
1>
#720000
0!
01
0B
0>
#725000
1!
11
1B
1>
#730000
0!
01
0B
0>
#735000
1!
11
1B
1>
#740000
0!
01
0B
0>
#745000
1!
11
1B
1>
#750000
0!
01
0B
0>
#755000
1!
11
1B
1>
#760000
0!
01
0B
0>
#765000
1!
11
1B
1>
#770000
0!
01
0B
0>
#775000
1!
11
1B
1>
#780000
0!
01
0B
0>
#785000
1!
11
1B
1>
#790000
0!
01
0B
0>
#795000
1!
11
1B
1>
#800000
0!
01
0B
0>
#805000
1!
11
1B
1>
#810000
0!
01
0B
0>
#815000
1!
11
1B
1>
#820000
0!
01
0B
0>
#825000
1!
11
1B
1>
#830000
0!
01
0B
0>
#835000
1!
11
1B
1>
#840000
0!
01
0B
0>
#845000
1!
11
1B
1>
#850000
0!
01
0B
0>
#855000
1!
11
1B
1>
#860000
0!
01
0B
0>
#865000
1!
11
1B
1>
#870000
0!
01
0B
0>
#875000
1!
11
1B
1>
#880000
0!
01
0B
0>
#885000
1!
11
1B
1>
#890000
0!
01
0B
0>
#895000
1!
11
1B
1>
#900000
0!
01
0B
0>
#905000
1!
11
1B
1>
#910000
0!
01
0B
0>
#915000
1!
11
1B
1>
#920000
0!
01
0B
0>
#925000
1!
11
1B
1>
#930000
0!
01
0B
0>
#935000
1!
11
1B
1>
#940000
0!
01
0B
0>
#945000
1!
11
1B
1>
#950000
0!
01
0B
0>
#955000
1!
11
1B
1>
#960000
0!
01
0B
0>
#965000
1!
11
1B
1>
#970000
0!
01
0B
0>
#975000
1!
11
1B
1>
#980000
0!
01
0B
0>
#985000
1!
11
1B
1>
#990000
0!
01
0B
0>
#995000
1!
11
1B
1>
